10400000         2147675210001830000000000000000000003939030567600000000IBI SERVICOS EDUCACIONAIS LTDAC ECON FEDERAL                          21409201502185700058504000000                    RETORNO-PRODUCAO                  000            
10400011T0100030 20147675210001830000000000000000000003939030567600000000IBI SERVICOS EDUCACIONAIS LTDA                                                                                00000585140920150000000000                          00   
1040001300001T 060000003056760000000   1400000000005430261               14092015000000000008990000007930                         090000000000000000                                                  000000000000155020101                     
1040001300002U 06000000000000000000000000000000000000000000000000000000000000000000000008990000000000008990000000000000000000000000000000140920151509201500001509201500000000000000000000000000000000000000000000000000000000000000000000       
1040001300003T 060000003056760000000   1400000000005409061               19092015000000000008990000029600                         090000000000000000                                                  000000000000155020101                     
1040001300004U 06000000000000000000000000000000000000000000000000000000000000000000000008990000000000008990000000000000000000000000000000140920151509201500001509201500000000000000000000000000000000000000000000000000000000000000000000       
1040001300005T 060000003056760000000   1400000000005431661               16092015000000000008990000039390                         090000000000000000                                                  000000000000155020101                     
1040001300006U 06000000000000000000000000000000000000000000000000000000000000000000000008990000000000008990000000000000000000000000000000140920151509201500001509201500000000000000000000000000000000000000000000000000000000000000000000       
1040001300007T 060000003056760000000   1400000000005431901               18092015000000000008990001018860                         090000000000000000                                                  000000000000295040101                     
1040001300008U 06000000000000000000000000000000000000000000000000000000000000000000000008990000000000008990000000000000000000000000000000140920151509201500001509201500000000000000000000000000000000000000000000000000000000000000000000       
1040001300009T 060000003056760000000   1400000000005426401               14092015000000000008990001039620                         090000000000000000                                                  000000000000295040101                     
1040001300010U 06000000000000000000000000000000000000000000000000000000000000000000000008990000000000008990000000000000000000000000000000140920151509201500001509201500000000000000000000000000000000000000000000000000000000000000000000       
1040001300011T 280000003056760000000                     0               00000000000000000000000000000000                         000000000000000000                                                  0000000000001500000000000                 
1040001300012U 280000000000000000000000000000000000000000000000000000000000000000000000000000000000000000000000000000000000000000000000001409201500000000000014092015000000000000000                              000                           
10400015         00001400000000000000000000000000000000000000000000000000000000000000000000000000000000000000000000                                                                                                                             
10499999         000001000016                                                                                                                                                                                                                   
