10400000         2147675210001830000000000000000000003939030567600000000IBI SERVICOS EDUCACIONAIS LTDAC ECON FEDERAL                          20202201502042600050204000000                    RETORNO-PRODUCAO                  000            
10400011T0100030 20147675210001830000000000000000000003939030567600000000IBI SERVICOS EDUCACIONAIS LTDA                                                                                00000502020220150000000000                          00   
1040001300001T 060000003056760000000   240000000000374273100000000000000016022015000000000013000000007930000000000000000          090000000000000000                                                  000000000000155020101                     
1040001300002U 06000000000000000000000000000000000000000000000000000000000000000000000013000000000000013000000000000000000000000000000000020220150302201500000302201500000000000000000000000000000000000000000000000000000000000000000000       
1040001300003T 060000003056760000000   240000000000380311100000000000000015022015000000000013000001007940000000000000000          090000000000000000                                                  000000000000295040101                     
1040001300004U 06000000000000000000000000000000000000000000000000000000000000000000000013000000000000013000000000000000000000000000000000020220150302201500000302201500000000000000000000000000000000000000000000000000000000000000000000       
1040001300005T 060000003056760000000   240000000000449559100000000000000015022015000000000013000237005900000000000000000          090000000000000000                                                  000000000000295040101                     
1040001300006U 06000000000000000000000000000000000000000000000000000000000000000000000013000000000000013000000000000000000000000000000000020220150302201500000302201500000000000000000000000000000000000000000000000000000000000000000000       
1040001300007T 060000003056760000000   240000000000304593100000000000000015022015000000000008000001057430000000000000000          090000000000000000                                                  000000000000295040101                     
1040001300008U 06000000000000000000000000000000000000000000000000000000000000000000000008000000000000008000000000000000000000000000000000020220150302201500000302201500000000000000000000000000000000000000000000000000000000000000000000       
1040001300009T 060000003056760000000   240000000000304500100000000000000015022015000000000013000001057430000000000000000          090000000000000000                                                  000000000000295040101                     
1040001300010U 06000000000000000000000000000000000000000000000000000000000000000000000013000000000000013000000000000000000000000000000000020220150302201500000302201500000000000000000000000000000000000000000000000000000000000000000000       
1040001300011T 060000003056760000000   240000000000252984100000000000000015022015000000000013000001039620000000000000000          090000000000000000                                                  000000000000295040101                     
1040001300012U 06000000000000000000000000000000000000000000000000000000000000000000000013000000000000013000000000000000000000000000000000020220150302201500000302201500000000000000000000000000000000000000000000000000000000000000000000       
10400015         00001400000000000000000000000000000000000000000000000000000000000000000000000000000000000000000000                                                                                                                             
10499999         000001000016                                                                                                                                                                                                                   
