10400000         2147675210001830000000000000000000003939030567600000000IBI SERVICOS EDUCACIONAIS LTDAC ECON FEDERAL                          20506201502112100054404000000                    RETORNO-PRODUCAO                  000            
10400011T0100030 20147675210001830000000000000000000003939030567600000000IBI SERVICOS EDUCACIONAIS LTDA                                                                                00000544050620150000000000                          00   
1040001300001T 060000003056760000000   1400000000005362161               05062015000000000013580399005230                         090000000000000000                                                  000000000000295040101                     
1040001300002U 06000000000000000000000000000000000000000000000000000000000000000000000013580000000000013580000000000000000000000000000000050620150806201500000806201500000000000000000000000000000000000000000000000000000000000000000000       
1040001300003T 060000003056760000000   1400000000005355621               05062015000000000008990001059210                         090000000000000000                                                  000000000000295040101                     
1040001300004U 06000000000000000000000000000000000000000000000000000000000000000000000008990000000000008990000000000000000000000000000000050620150806201500000806201500000000000000000000000000000000000000000000000000000000000000000000       
1040001300005T 060000003056760000000   1400000000005375811               09062015000000000008990001011170                         090000000000000000                                                  000000000000295040101                     
1040001300006U 06000000000000000000000000000000000000000000000000000000000000000000000008990000000000008990000000000000000000000000000000050620150806201500000806201500000000000000000000000000000000000000000000000000000000000000000000       
1040001300007T 060000003056760000000   1400000000005355971               05062015000000000008990001039620                         090000000000000000                                                  000000000000295040101                     
1040001300008U 06000000000000000000000000000000000000000000000000000000000000000000000008990000000000008990000000000000000000000000000000050620150806201500000806201500000000000000000000000000000000000000000000000000000000000000000000       
1040001300009T 280000003056760000000                     0               00000000000000000000000000000000                         000000000000000000                                                  0000000000001200000000000                 
1040001300010U 280000000000000000000000000000000000000000000000000000000000000000000000000000000000000000000000000000000000000000000000000506201500000000000005062015000000000000000                              000                           
10400015         00001200000000000000000000000000000000000000000000000000000000000000000000000000000000000000000000                                                                                                                             
10499999         000001000014                                                                                                                                                                                                                   
