10400000         2147675210001830000000000000000000003939030567600000000IBI SERVICOS EDUCACIONAIS LTDAC ECON FEDERAL                          21802201502110500051104000000                    RETORNO-PRODUCAO                  000            
10400011T0100030 20147675210001830000000000000000000003939030567600000000IBI SERVICOS EDUCACIONAIS LTDA                                                                                00000511180220150000000000                          00   
1040001300001T 060000003056760000000   240000000000489577100000000000000015022015000000000013000000025250000000000000000          090000000000000000                                                  000000000000155020101                     
1040001300002U 06000000000000000000000000000000000000000000000000000000000000000000000013000000000000013000000000000000000000000000000000180220151902201500001902201500000000000000000000000000000000000000000000000000000000000000000000       
1040001300003T 060000003056760000000   240000000000489119100000000000000015022015000000000008000000018290000000000000000          090000000000000000                                                  000000000000155020101                     
1040001300004U 06000000000000000000000000000000000000000000000000000000000000000000000008000000000000008000000000000000000000000000000000180220151902201500001902201500000000000000000000000000000000000000000000000000000000000000000000       
1040001300005T 060000003056760000000   240000000000488392100000000000000015022015000000000008000000018290000000000000000          090000000000000000                                                  000000000000155020101                     
1040001300006U 06000000000000000000000000000000000000000000000000000000000000000000000008000000000000008000000000000000000000000000000000180220151902201500001902201500000000000000000000000000000000000000000000000000000000000000000000       
1040001300007T 060000003056760000000   240000000000462547100000000000000015022015000000000013000001059210000000000000000          090000000000000000                                                  000000000000295040101                     
1040001300008U 06000000000000000000000000000000000000000000000000000000000000000000000013000000000000013000000000000000000000000000000000180220151902201500001902201500000000000000000000000000000000000000000000000000000000000000000000       
1040001300009T 060000003056760000000   240000000000457985100000000000000015022015000000000008000237006200000000000000000          090000000000000000                                                  000000000000295040101                     
1040001300010U 06000000000000000000000000000000000000000000000000000000000000000000000008000000000000008000000000000000000000000000000000180220151902201500001902201500000000000000000000000000000000000000000000000000000000000000000000       
1040001300011T 060000003056760000000   240000000000457748100000000000000015022015000000000013000237006200000000000000000          090000000000000000                                                  000000000000295040101                     
1040001300012U 06000000000000000000000000000000000000000000000000000000000000000000000013000000000000013000000000000000000000000000000000180220151902201500001902201500000000000000000000000000000000000000000000000000000000000000000000       
1040001300013T 060000003056760000000   240000000000429442100000000000000015022015000000000008000000018290000000000000000          090000000000000000                                                  000000000000155020101                     
1040001300014U 06000000000000000000000000000000000000000000000000000000000000000000000008000000000000008000000000000000000000000000000000180220151902201500001902201500000000000000000000000000000000000000000000000000000000000000000000       
1040001300015T 060000003056760000000   240000000000414810100000000000000015022015000000000008000001039620000000000000000          090000000000000000                                                  000000000000295040101                     
1040001300016U 06000000000000000000000000000000000000000000000000000000000000000000000008000000000000008000000000000000000000000000000000180220151902201500001902201500000000000000000000000000000000000000000000000000000000000000000000       
1040001300017T 060000003056760000000   240000000000408615100000000000000015022015000000000008000000039390000000000000000          090000000000000000                                                  000000000000155020101                     
1040001300018U 06000000000000000000000000000000000000000000000000000000000000000000000008000000000000008000000000000000000000000000000000180220151902201500001902201500000000000000000000000000000000000000000000000000000000000000000000       
1040001300019T 060000003056760000000   240000000000402471100000000000000015022015000000000008000001015050000000000000000          090000000000000000                                                  000000000000295040101                     
1040001300020U 06000000000000000000000000000000000000000000000000000000000000000000000008000000000000008000000000000000000000000000000000180220151902201500001902201500000000000000000000000000000000000000000000000000000000000000000000       
1040001300021T 060000003056760000000   240000000000392743100000000000000015022015000000000013000237015540000000000000000          090000000000000000                                                  000000000000295040101                     
1040001300022U 06000000000000000000000000000000000000000000000000000000000000000000000013000000000000013000000000000000000000000000000000180220151902201500001902201500000000000000000000000000000000000000000000000000000000000000000000       
1040001300023T 060000003056760000000   240000000000392948100000000000000015022015000000000008000000011410000000000000000          090000000000000000                                                  000000000000065060101                     
1040001300024U 06000000000000000000000000000000000000000000000000000000000000000000000008000000000000008000000000000000000000000000000000180220151902201500001902201500000000000000000000000000000000000000000000000000000000000000000000       
1040001300025T 060000003056760000000   240000000000356410100000000000000015022015000000000005000001059210000000000000000          090000000000000000                                                  000000000000295040101                     
1040001300026U 06000000000000000000000000000000000000000000000000000000000000000000000005000000000000005000000000000000000000000000000000180220151902201500001902201500000000000000000000000000000000000000000000000000000000000000000000       
1040001300027T 060000003056760000000   240000000000350250100000000000000015022015000000000013000001008040000000000000000          090000000000000000                                                  000000000000295040101                     
1040001300028U 06000000000000000000000000000000000000000000000000000000000000000000000013000000000000013000000000000000000000000000000000180220151902201500001902201500000000000000000000000000000000000000000000000000000000000000000000       
1040001300029T 060000003056760000000   240000000000324497100000000000000015022015000000000008000001059210000000000000000          090000000000000000                                                  000000000000295040101                     
1040001300030U 06000000000000000000000000000000000000000000000000000000000000000000000008000000000000008000000000000000000000000000000000180220151902201500001902201500000000000000000000000000000000000000000000000000000000000000000000       
1040001300031T 060000003056760000000   240000000000324373100000000000000015022015000000000013000001039620000000000000000          090000000000000000                                                  000000000000295040101                     
1040001300032U 06000000000000000000000000000000000000000000000000000000000000000000000013000000000000013000000000000000000000000000000000180220151902201500001902201500000000000000000000000000000000000000000000000000000000000000000000       
1040001300033T 060000003056760000000   240000000000321994100000000000000015022015000000000013000001025950000000000000000          090000000000000000                                                  000000000000295040101                     
1040001300034U 06000000000000000000000000000000000000000000000000000000000000000000000013000000000000013000000000000000000000000000000000180220151902201500001902201500000000000000000000000000000000000000000000000000000000000000000000       
1040001300035T 060000003056760000000   240000000000309552100000000000000015022015000000000008000001018860000000000000000          090000000000000000                                                  000000000000295040101                     
1040001300036U 06000000000000000000000000000000000000000000000000000000000000000000000008000000000000008000000000000000000000000000000000180220151902201500001902201500000000000000000000000000000000000000000000000000000000000000000000       
10400015         00003800000000000000000000000000000000000000000000000000000000000000000000000000000000000000000000                                                                                                                             
10499999         000001000040                                                                                                                                                                                                                   
