10400000         2147675210001830000000000000000000003939030567600000000IBI SERVICOS EDUCACIONAIS LTDAC ECON FEDERAL                          22403201500534900051704000000                    RETORNO-PRODUCAO                  000            
10400011T0100030 20147675210001830000000000000000000003939030567600000000IBI SERVICOS EDUCACIONAIS LTDA                                                                                00000517240320150000000000                          00   
1040001300001T 060000003056760000000   1400000000005012501               25032015000000000013000000039390                         090000000000000000                                                  000000000000215060101                     
1040001300002U 06000000000000000000000000000000000000000000000000000000000000000000000013000000000000013000000000000000000000000000000000240320152503201500002503201500000000000000000000000000000000000000000000000000000000000000000000       
1040001300003T 060000003056760000000   1400000000003744881               25032015000000000013000000007930                         090000000000000000                                                  000000000000155020101                     
1040001300004U 06000000000000000000000000000000000000000000000000000000000000000000000013000000000000013000000000000000000000000000000000240320152503201500002503201500000000000000000000000000000000000000000000000000000000000000000000       
1040001300005T 060000003056760000000   1400000000003740891               25032015000000000013000000007930                         090000000000000000                                                  000000000000215060101                     
1040001300006U 06000000000000000000000000000000000000000000000000000000000000000000000013000000000000013000000000000000000000000000000000240320152503201500002503201500000000000000000000000000000000000000000000000000000000000000000000       
1040001300007T 060000003056760000000   1400000000003738991               25032015000000000013000000007930                         090000000000000000                                                  000000000000215060101                     
1040001300008U 06000000000000000000000000000000000000000000000000000000000000000000000013000000000000013000000000000000000000000000000000240320152503201500002503201500000000000000000000000000000000000000000000000000000000000000000000       
1040001300009T 060000003056760000000   1400000000003703341               25032015000000000013000000007930                         090000000000000000                                                  000000000000215060101                     
1040001300010U 06000000000000000000000000000000000000000000000000000000000000000000000013000000000000013000000000000000000000000000000000240320152503201500002503201500000000000000000000000000000000000000000000000000000000000000000000       
1040001300011T 060000003056760000000   1400000000004709081               25032015000000000013000237007250                         090000000000000000                                                  000000000000295040101                     
1040001300012U 06000000000000000000000000000000000000000000000000000000000000000000000013000000000000013000000000000000000000000000000000240320152503201500002503201500000000000000000000000000000000000000000000000000000000000000000000       
1040001300013T 280000003056760000000                     0               00000000000000000000000000000000                         000000000000000000                                                  0000000000001800000000000                 
1040001300014U 280000000000000000000000000000000000000000000000000000000000000000000000000000000000000000000000000000000000000000000000002403201500000000000024032015000000000000000                              000                           
10400015         00001600000000000000000000000000000000000000000000000000000000000000000000000000000000000000000000                                                                                                                             
10499999         000001000018                                                                                                                                                                                                                   
