10400000         2147675210001830000000000000000000003939030567600000000IBI SERVICOS EDUCACIONAIS LTDAC ECON FEDERAL                          21507201501101900056004000000                    RETORNO-PRODUCAO                  000            
10400011T0100030 20147675210001830000000000000000000003939030567600000000IBI SERVICOS EDUCACIONAIS LTDA                                                                                00000560150720150000000000                          00   
1040001300001T 060000003056760000000   1400000000005403531               20072015000000000008990001025170                         090000000000000000                                                  000000000000295040101                     
1040001300002U 06000000000000000000000000000000000000000000000000000000000000000000000008990000000000008990000000000000000000000000000000150720151607201500001607201500000000000000000000000000000000000000000000000000000000000000000000       
1040001300003T 060000003056760000000   1400000000005403611               20072015000000000008990001025170                         090000000000000000                                                  000000000000295040101                     
1040001300004U 06000000000000000000000000000000000000000000000000000000000000000000000008990000000000008990000000000000000000000000000000150720151607201500001607201500000000000000000000000000000000000000000000000000000000000000000000       
1040001300005T 060000003056760000000   1400000000005399401               16072015000000000008990000040650                         090000000000000000                                                  000000000000155020101                     
1040001300006U 06000000000000000000000000000000000000000000000000000000000000000000000008990000000000008990000000000000000000000000000000150720151607201500001607201500000000000000000000000000000000000000000000000000000000000000000000       
1040001300007T 060000003056760000000   1400000000005403101               19072015000000000008990000015750                         090000000000000000                                                  000000000000130060101                     
1040001300008U 06000000000000000000000000000000000000000000000000000000000000000000000008990000000000008990000000000000000000000000000000150720151607201500001607201500000000000000000000000000000000000000000000000000000000000000000000       
1040001300009T 060000003056760000000   1400000000005403371               19072015000000000008990000039390                         090000000000000000                                                  000000000000215060101                     
1040001300010U 06000000000000000000000000000000000000000000000000000000000000000000000008990000000000008990000000000000000000000000000000150720151607201500001607201500000000000000000000000000000000000000000000000000000000000000000000       
1040001300011T 280000003056760000000                     0               00000000000000000000000000000000                         000000000000000000                                                  0000000000001500000000000                 
1040001300012U 280000000000000000000000000000000000000000000000000000000000000000000000000000000000000000000000000000000000000000000000001507201500000000000015072015000000000000000                              000                           
10400015         00001400000000000000000000000000000000000000000000000000000000000000000000000000000000000000000000                                                                                                                             
10499999         000001000016                                                                                                                                                                                                                   
