10400000         2147675210001830000000000000000000003939030567600000000IBI SERVICOS EDUCACIONAIS LTDAC ECON FEDERAL                          22109201502150400058704000000                    RETORNO-PRODUCAO                  000            
10400011T0100030 20147675210001830000000000000000000003939030567600000000IBI SERVICOS EDUCACIONAIS LTDA                                                                                00000587210920150000000000                          00   
1040001300001T 060000003056760000000   1400000000005438671               26092015000000000008990341027990                         090000000000000000                                                  000000000000295040101                     
1040001300002U 06000000000000000000000000000000000000000000000000000000000000000000000008990000000000008990000000000000000000000000000000210920152209201500002209201500000000000000000000000000000000000000000000000000000000000000000000       
1040001300003T 060000003056760000000   1400000000005438751               26092015000000000008990341027990                         090000000000000000                                                  000000000000295040101                     
1040001300004U 06000000000000000000000000000000000000000000000000000000000000000000000008990000000000008990000000000000000000000000000000210920152209201500002209201500000000000000000000000000000000000000000000000000000000000000000000       
1040001300005T 280000003056760000000                     0               00000000000000000000000000000000                         000000000000000000                                                  0000000000000600000000000                 
1040001300006U 280000000000000000000000000000000000000000000000000000000000000000000000000000000000000000000000000000000000000000000000002109201500000000000021092015000000000000000                              000                           
10400015         00000800000000000000000000000000000000000000000000000000000000000000000000000000000000000000000000                                                                                                                             
10499999         000001000010                                                                                                                                                                                                                   
