10400000         2147675210001830000000000000000000003939030567600000000IBI SERVICOS EDUCACIONAIS LTDAC ECON FEDERAL                          20209201501070900058004000000                    RETORNO-PRODUCAO                  000            
10400011T0100030 20147675210001830000000000000000000003939030567600000000IBI SERVICOS EDUCACIONAIS LTDA                                                                                00000580020920150000000000                          00   
1040001300001T 060000003056760000000   1400000000005425341               02092015000000000008990000040650                         090000000000000000                                                  000000000000130060101                     
1040001300002U 06000000000000000000000000000000000000000000000000000000000000000000000008990000000000008990000000000000000000000000000000020920150309201500000309201500000000000000000000000000000000000000000000000000000000000000000000       
1040001300003T 280000003056760000000                     0               00000000000000000000000000000000                         000000000000000000                                                  0000000000000300000000000                 
1040001300004U 280000000000000000000000000000000000000000000000000000000000000000000000000000000000000000000000000000000000000000000000000209201500000000000002092015000000000000000                              000                           
10400015         00000600000000000000000000000000000000000000000000000000000000000000000000000000000000000000000000                                                                                                                             
10499999         000001000008                                                                                                                                                                                                                   
