10400000         2147675210001830000000000000000000003939030567600000000IBI SERVICOS EDUCACIONAIS LTDAC ECON FEDERAL                          20707201501112600055504000000                    RETORNO-PRODUCAO                  000            
10400011T0100030 20147675210001830000000000000000000003939030567600000000IBI SERVICOS EDUCACIONAIS LTDA                                                                                00000555070720150000000000                          00   
1040001300001T 060000003056760000000   1400000000005393551               07072015000000000008990001039620                         090000000000000000                                                  000000000000295040101                     
1040001300002U 06000000000000000000000000000000000000000000000000000000000000000000000008990000000000008990000000000000000000000000000000070720150807201500000807201500000000000000000000000000000000000000000000000000000000000000000000       
1040001300003T 060000003056760000000   1400000000005393801               08072015000000000008990000007930                         090000000000000000                                                  000000000000215060101                     
1040001300004U 06000000000000000000000000000000000000000000000000000000000000000000000008990000000000008990000000000000000000000000000000070720150807201500000807201500000000000000000000000000000000000000000000000000000000000000000000       
1040001300005T 060000003056760000000   1400000000005395681               11072015000000000008990000006100                         090000000000000000                                                  000000000000155020101                     
1040001300006U 06000000000000000000000000000000000000000000000000000000000000000000000008990000000000008990000000000000000000000000000000070720150807201500000807201500000000000000000000000000000000000000000000000000000000000000000000       
1040001300007T 060000003056760000000   1400000000005396651               12072015000000000008990000040650                         090000000000000000                                                  000000000000130060101                     
1040001300008U 06000000000000000000000000000000000000000000000000000000000000000000000008990000000000008990000000000000000000000000000000070720150807201500000807201500000000000000000000000000000000000000000000000000000000000000000000       
1040001300009T 060000003056760000000   1400000000005396731               12072015000000000008990237023970                         090000000000000000                                                  000000000000295040101                     
1040001300010U 06000000000000000000000000000000000000000000000000000000000000000000000008990000000000008990000000000000000000000000000000070720150807201500000807201500000000000000000000000000000000000000000000000000000000000000000000       
1040001300011T 280000003056760000000                     0               00000000000000000000000000000000                         000000000000000000                                                  0000000000001500000000000                 
1040001300012U 280000000000000000000000000000000000000000000000000000000000000000000000000000000000000000000000000000000000000000000000000707201500000000000007072015000000000000000                              000                           
10400015         00001400000000000000000000000000000000000000000000000000000000000000000000000000000000000000000000                                                                                                                             
10499999         000001000016                                                                                                                                                                                                                   
